[gd_scene load_steps=2 format=3 uid="uid://8hhbx112etu5"]

[ext_resource type="Script" path="res://scenes/level_generator.gd" id="1_wcyl6"]

[node name="LevelGenerator" type="Node2D"]
script = ExtResource("1_wcyl6")

[node name="PlatformParent" type="Node2D" parent="."]
